feb 19, 2016 1:57:21 PM ejercicio1.Ejercicio1 <init>
INFORMACIÓN: Se ha conectado el usuario = marinana
feb 19, 2016 1:57:27 PM ejercicio1.Ejercicio1 <init>
INFORMACIÓN: El usuario quiere ver el fichero = ejemplo.txt
